{
"wallpaper" : "http://刚刚.live/图",
//"spider":"https://agit.ai/fbyh/fbys/raw/branch/master/w.jar",
"spider":"https://agit.ai/Yoursmile7/TVBox/raw/branch/master/Yoursmile.jar",
"rules":[ 
{"host":"*","rule":["mp3"]},
{"host":"*","rule":["m4a"]},         
{"host":"www.tingxiaoshuo.cc","rule":["baidupcs.com","/file/","m4a"]},
{"host":"www.tingxiaoshuo.cc","rule":["baidupcs.com","/file/","mp3"]},
{"host":"www.tingxiaoshuo.cc","rule":["365ting.com"]},
{"host":"www.tingxiaoshuo.cc","rule":["365ting.com"]},
{"host":"www.tingxiaoshuo.cc","rule":["tingshijie.com"]},
{"host":"www.tingxiaoshuo.cc","rule":["xmcdn.com"]},
{"host":"www.tingxiaoshuo.cc","rule":["xmcdn.com"]},
{"host":"www.tingxiaoshuo.cc","rule":["vb.wting.info","token="]},
{"host":"m.ysxs8.vip","rule":["xmcdn.com","m4a"]},
{"host":"m.ysxs8.vip","rule":["ysting.ysxs8.vip:81","xmcdn.com"],"filter":[]},
{"host":"www.sharenice.net","rule":["douyin.com","/play/"],"filter":[]},
{"host":"www.sharenice.net","rule":["huoshan.com","/item/video/"],"filter":[]},
{"host":"www.sharenice.net","rule":["sovv.qianpailive.com","vid="],"filter":[]},
{"host":"*", "rule":["default.365yg.com", "/video/tos/cn/"]},  
{"host":"*", "rule":["aliyundrive.net", "response-content-disposition=", ".m3u8"]},
{"host":"*", "rule":["aliyundrive.net", "response-content-disposition=", ".mp4"]}, 
{"host":"*", "rule":["aliyundrive.net", "response-content-disposition=", ".mkv"]}, 
{"host":"*", "rule":["/m3u8.php?path=", ".m3u8"]}, 
{"host":"zjmiao.com", "rule":["play.videomiao.vip/API.php", "time=", "key=", "path="]},  
{"host":"*", "rule":["/API.php?time=", "key=", "path=", ".m3u8"]},
{"host":"*", "rule":["oss-cn-m3u8", "myqcloud.com.zh188.net", "?url=", ".m3u8"]}, 
{"host":"www.007ts.me", "rule":["hls.pchj.net", ".m3u8"]},
{"host":"*", "rule":["iesdouyin.com/aweme", "video_id="]},
{"host":"*","rule":["http((?!http).){26,}?\\.(m3u8|mp4|flv|avi|mkv|wmv|mpg|mpeg|mov|ts|3gp|rm|rmvb|asf|m4a|mp3|wma)\\?.*"]},
{"host":"*","rule":["http((?!http).){26,}\\.(m3u8|mp4|flv|avi|mkv|wmv|mpg|mpeg|mov|ts|3gp|rm|rmvb|asf|m4a|mp3|wma)"]}
],
  "sites": [
    {
            "key" : "drpy_js_蜻蜓FM",
            "name" : "蜻蜓FM[DRPY]",
            "type" : 3,
            "api" : "https://gitlab.com/ananqiu/ananmtv/-/raw/main/js/drpy.min.js",
            "ext" : "https://agit.ai/fbyh/fbys/raw/branch/master/蜻蜓FM.js",
            "playerType":"2"
    },
    {
            "key" : "drpy_js_听书网",
            "name" : "听书网[DRPY]",
            "type" : 3,
            "api" : "https://gitlab.com/ananqiu/ananmtv/-/raw/main/js/drpy.min.js",
            "ext" : "https://agit.ai/fbyh/fbys/raw/branch/master/听书网.js",
            "playerType":"2"
    },
    {
            "key" : "drpy_js_海盗听书",
            "name" : "海盗听书[DRPY]",
            "type" : 3,
            "api" : "https://gitlab.com/ananqiu/ananmtv/-/raw/main/js/drpy.min.js",
            "ext" : "https://agit.ai/fbyh/fbys/raw/branch/master/海盗听书.js",
            "playerType":"2"
    },
    {
            "key" : "drpy_js_有声小说吧",
            "name" : "有声小说吧[DRPY]",
            "type" : 3,
            "api" : "https://gitlab.com/ananqiu/ananmtv/-/raw/main/js/drpy.min.js",
            "ext" : "https://agit.ai/fbyh/fbys/raw/branch/master/有声小说吧.js",
            "playerType":"2"
    },
    {
      "key": "drpy_js_555影视",
      "name": "555影视[DRPY]",
      "type": 3,
      "api": "https://gitlab.com/ananqiu/ananmtv/-/raw/main/js/drpy.min.js",
      "ext": "https://gitcode.net/qq_32394351/dr_py/-/raw/master/js/555影视.js"
    },
    {
      "key": "drpy_js_1080P",
      "name": "1080P[DRPY]",
      "type": 3,
      "api": "https://gitlab.com/ananqiu/ananmtv/-/raw/main/js/drpy.min.js",
      "ext": "https://gitcode.net/qq_32394351/dr_py/-/raw/master/js/1080P.js"
    },
    {
      "key": "drpy_js_007影视",
      "name": "007影视[DRPY]",
      "type": 3,
      "api": "https://gitlab.com/ananqiu/ananmtv/-/raw/main/js/drpy.min.js",
      "ext": "https://gitcode.net/qq_32394351/dr_py/-/raw/master/js/007影视.js"
    },
    {
      "key": "drpy_js_LIBVIO",
      "name": "LIBVIO[DRPY]",
      "type": 3,
      "api": "https://gitlab.com/ananqiu/ananmtv/-/raw/main/js/drpy.min.js",
      "ext": "https://gitcode.net/qq_32394351/dr_py/-/raw/master/js/LIBVIO.js"
    },
    {
      "key": "drpy_js_剧白白",
      "name": "剧白白[DRPY]",
      "type": 3,
      "api": "https://gitlab.com/ananqiu/ananmtv/-/raw/main/js/drpy.min.js",
      "ext": "https://gitcode.net/qq_32394351/dr_py/-/raw/master/js/剧白白.js"
    },
    {
      "key": "drpy_js_看视界",
      "name": "看视界[DRPY]",
      "type": 3,
      "api": "https://gitlab.com/ananqiu/ananmtv/-/raw/main/js/drpy.min.js",
      "ext": "https://gitcode.net/qq_32394351/dr_py/-/raw/master/js/看视界.js"
    }
  ],

    "parses" : [
            {
            "name" : "Json聚合",
            "type" : 3,
            "url" : "Demo"
        },
            {
            "name" : "Web聚合",
            "type" : 3,
            "url" : "Web"
        },
            {
            "name" : "Json并发",
            "type" : 2,
            "url" : "Parallel"
        },
            {
            "name" : "Json轮询",
            "type" : 2,
            "url" : "Sequence"
        },
        {
            "name" : "莫为",
            "type" : 1,
            "url" : "http://jx.vipmv.co/json.php?token=123457&url="
        },
            {
            "name" : "rx2",
            "type" : 1,
            "url" : "http://rxjx.kuanjv.com/allm3u8.php?url="
        },
            {
            "name" : "江湖1080",
            "type" : 1,
            "url" : "http://211.99.99.236:4567/jhjson/ceshi.php?url="
        },
            {
            "name" : "keyu",
            "type" : 1,
            "url" : "http://newjiexi.gotka.top/keyu3.php?url=",
            "ext" : {
                "header" : {
                    "User-Agent" : "okhttp/4.1.0"
                }
            }
        },
            {
            "name" : "荣兴",
            "type" : 1,
            "url" : "http://jx.dygfsdy.com/home/api?type=ys&uid=129415&key=acdmoruwxCDEKPZ679&url="
        },
            {
            "name" : "Pro",
            "type" : 1,
            "url" : "http://api.vip123kan.vip/?url=",
            "ext" : {
                "flag" : [
                    "youku",
                    "优酷",
                    "mgtv",
                    "芒果",
                    "qq",
                    "腾讯",
                    "qiyi",
                    "爱奇艺",
                    "qq",
                    "奇艺"]
            }
        },
            {
            "name" : "xmflv",
            "type" : 0,
            "url" : "https://jx.xmflv.com/?url="
        },
            {
            "name" : "freejson",
            "type" : 0,
            "url" : "https://h5.freejson.xyz/player/?url="
        },
            {
            "name" : "365",
            "type" : 0,
            "url" : "https://chaxun.truechat365.com/?url=",
            "ext" : {
                "flag" : [
                    "qq",
                    "腾讯",
                    "qiyi",
                    "iqiyi",
                    "爱奇艺",
                    "奇艺",
                    "youku",
                    "优酷",
                    "mgtv",
                    "芒果",
                    "letv",
                    "乐视",
                    "pptv",
                    "PPTV",
                    "sohu",
                    "bilibili",
                    "哔哩哔哩",
                    "哔哩"]
            }
        },
            {
            "name" : "parwix稳定",
            "type" : 0,
            "url" : "https://jx.bozrc.com:4433/player/?url=",
            "ext" : {
                "flag" : [
                    "qq",
                    "腾讯",
                    "qiyi",
                    "iqiyi",
                    "爱奇艺",
                    "奇艺",
                    "youku",
                    "优酷",
                    "mgtv",
                    "芒果",
                    "letv",
                    "乐视",
                    "pptv",
                    "PPTV",
                    "sohu",
                    "bilibili",
                    "哔哩哔哩",
                    "哔哩"]
            }
        },
            {
            "name" : "parwix1",
            "type" : 0,
            "url" : "https://jx.parwix.com:4433/player/?url=",
            "ext" : {
                "flag" : [
                    "qq",
                    "腾讯",
                    "qiyi",
                    "iqiyi",
                    "爱奇艺",
                    "奇艺",
                    "youku",
                    "优酷",
                    "mgtv",
                    "芒果",
                    "letv",
                    "乐视",
                    "pptv",
                    "PPTV",
                    "sohu",
                    "bilibili",
                    "哔哩哔哩",
                    "哔哩"]
            }
        },
            {
            "name" : "夜幕",
            "type" : 0,
            "url" : "https://www.yemu.xyz/?url=",
            "ext" : {
                "flag" : [
                    "qq",
                    "腾讯",
                    "qiyi",
                    "iqiyi",
                    "爱奇艺",
                    "奇艺",
                    "youku",
                    "优酷",
                    "mgtv",
                    "芒果",
                    "letv",
                    "乐视",
                    "pptv",
                    "PPTV",
                    "sohu",
                    "bilibili",
                    "哔哩哔哩",
                    "哔哩"]
            }
        },
            {
            "name" : "8090",
            "url" : "https://www.8090g.cn/?url="
        },
            {
            "name" : "油果",
            "type" : 1,
            "url" : "http://json.youguo520.top/fufeng/?url=",
            "ext" : {
                "flag" : [
                    "qq",
                    "腾讯",
                    "qiyi",
                    "iqiyi",
                    "爱奇艺",
                    "奇艺",
                    "youku",
                    "优酷",
                    "mgtv",
                    "芒果",
                    "letv",
                    "乐视",
                    "pptv",
                    "PPTV",
                    "sohu",
                    "bilibili",
                    "哔哩哔哩",
                    "哔哩"],
                "header" : {
                    "User-Agent" : "Dart/2.14 (dart:io)"
                }
            }
        },
            {
            "name" : "懒懒1",
            "type" : 1,
            "url" : "http://123.57.56.94:9931/lanlan/?url="
        },
            {
            "name" : "EXO",
            "type" : 0,
            "url" : "https://rx.69mj.com/?url=",
            "ext" : {
                "flag" : [
                    "rx",
                    "qq",
                    "腾讯",
                    "qiyi",
                    "爱奇艺",
                    "奇艺",
                    "youku",
                    "优酷",
                    "mgtv",
                    "芒果"]
            }
        },
            {
            "name" : "懒懒2",
            "type" : 1,
            "url" : "http://lanlan.ckflv.cn/?url=",
            "ext" : {
                "flag" : [
                    "qiyi",
                    "qq",
                    "letv",
                    "sohu",
                    "youku",
                    "mgtv",
                    "bilibili",
                    "wasu",
                    "xigua",
                    "1905"]
            }
        },
            {
            "name" : "parwix",
            "type" : 0,
            "url" : "https://jx.parwix.com:4433/player/?url="
        }],
    "flags" : [
        "youku",
        "qq",
        "iqiyi",
        "qiyi",
        "letv",
        "sohu",
        "tudou",
        "pptv",
        "mgtv",
        "wasu"],
    "ijk" : [
            {
            "group" : "软解码",
            "options" : [
                    {
                    "category" : 4,
                    "name" : "opensles",
                    "value" : "0"
                },
                    {
                    "category" : 4,
                    "name" : "overlay-format",
                    "value" : "842225234"
                },
                    {
                    "category" : 4,
                    "name" : "framedrop",
                    "value" : "1"
                },
                    {
                    "category" : 4,
                    "name" : "soundtouch",
                    "value" : "1"
                },
                    {
                    "category" : 4,
                    "name" : "start-on-prepared",
                    "value" : "1"
                },
                    {
                    "category" : 1,
                    "name" : "http-detect-range-support",
                    "value" : "0"
                },
                    {
                    "category" : 1,
                    "name" : "fflags",
                    "value" : "fastseek"
                },
                    {
                    "category" : 2,
                    "name" : "skip_loop_filter",
                    "value" : "48"
                },
                    {
                    "category" : 4,
                    "name" : "reconnect",
                    "value" : "1"
                },
                    {
                    "category" : 4,
                    "name" : "max-buffer-size",
                    "value" : "5242880"
                },
                    {
                    "category" : 4,
                    "name" : "enable-accurate-seek",
                    "value" : "0"
                },
                    {
                    "category" : 4,
                    "name" : "mediacodec",
                    "value" : "0"
                },
                    {
                    "category" : 4,
                    "name" : "mediacodec-auto-rotate",
                    "value" : "0"
                },
                    {
                    "category" : 4,
                    "name" : "mediacodec-handle-resolution-change",
                    "value" : "0"
                },
                    {
                    "category" : 4,
                    "name" : "mediacodec-hevc",
                    "value" : "0"
                }]
        },
            {
            "group" : "硬解码",
            "options" : [
                    {
                    "category" : 4,
                    "name" : "opensles",
                    "value" : "0"
                },
                    {
                    "category" : 4,
                    "name" : "overlay-format",
                    "value" : "842225234"
                },
                    {
                    "category" : 4,
                    "name" : "framedrop",
                    "value" : "1"
                },
                    {
                    "category" : 4,
                    "name" : "soundtouch",
                    "value" : "1"
                },
                    {
                    "category" : 4,
                    "name" : "start-on-prepared",
                    "value" : "1"
                },
                    {
                    "category" : 1,
                    "name" : "http-detect-range-support",
                    "value" : "0"
                },
                    {
                    "category" : 1,
                    "name" : "fflags",
                    "value" : "fastseek"
                },
                    {
                    "category" : 2,
                    "name" : "skip_loop_filter",
                    "value" : "48"
                },
                    {
                    "category" : 4,
                    "name" : "reconnect",
                    "value" : "1"
                },
                    {
                    "category" : 4,
                    "name" : "max-buffer-size",
                    "value" : "5242880"
                },
                    {
                    "category" : 4,
                    "name" : "enable-accurate-seek",
                    "value" : "0"
                },
                    {
                    "category" : 4,
                    "name" : "mediacodec",
                    "value" : "1"
                },
                    {
                    "category" : 4,
                    "name" : "mediacodec-auto-rotate",
                    "value" : "1"
                },
                    {
                    "category" : 4,
                    "name" : "mediacodec-handle-resolution-change",
                    "value" : "1"
                },
                    {
                    "category" : 4,
                    "name" : "mediacodec-hevc",
                    "value" : "1"
                }]
        }],
    "ads" : [
        "mimg.0c1q0l.cn",
        "www.googletagmanager.com",
        "www.google-analytics.com",
        "mc.usihnbcq.cn",
        "mg.g1mm3d.cn",
        "mscs.svaeuzh.cn",
        "cnzz.hhttm.top",
        "tp.vinuxhome.com",
        "cnzz.mmstat.com",
        "www.baihuillq.com",
        "s23.cnzz.com",
        "z3.cnzz.com",
        "c.cnzz.com",
        "stj.v1vo.top",
        "z12.cnzz.com",
        "img.mosflower.cn",
        "tips.gamevvip.com",
        "ehwe.yhdtns.com",
        "xdn.cqqc3.com",
        "www.jixunkyy.cn",
        "sp.chemacid.cn",
        "hm.baidu.com",
        "s9.cnzz.com",
        "z6.cnzz.com",
        "um.cavuc.com",
        "mav.mavuz.com",
        "wofwk.aoidf3.com",
        "z5.cnzz.com",
        "xc.hubeijieshikj.cn",
        "tj.tianwenhu.com",
        "xg.gars57.cn",
        "k.jinxiuzhilv.com",
        "cdn.bootcss.com",
        "ppl.xunzhuo123.com",
        "xomk.jiangjunmh.top",
        "img.xunzhuo123.com",
        "z1.cnzz.com",
        "s13.cnzz.com",
        "xg.huataisangao.cn",
        "z7.cnzz.com",
        "xg.huataisangao.cn",
        "z2.cnzz.com",
        "s96.cnzz.com",
        "q11.cnzz.com",
        "thy.dacedsfa.cn",
        "xg.whsbpw.cn",
        "s19.cnzz.com",
        "z8.cnzz.com",
        "s4.cnzz.com",
        "f5w.as12df.top",
        "ae01.alicdn.com",
        "www.92424.cn",
        "k.wudejia.com",
        "vivovip.mmszxc.top",
        "qiu.xixiqiu.com",
        "cdnjs.hnfenxun.com",
        "cms.qdwght.com"]
}
